0000
0000
0000
0000
0000
0000
0000
0000
0000
0000
0000
0000
0000
0000
0000
0000
0000
0000
0000
0000
0000
001c
001d
001f
0021
0023
0025
0027
0029
002c
002e
0031
0034
0037
003a
003e
0041
0045
0049
004e
0052
0057
005c
0062
0068
006e
0075
007b
0083
008b
0093
009c
00a5
00af
00b9
00c4
00d0
00dc
00e9
00f7
0106
0115
0126
0137
014a
015d
0172
0188
019f
01b8
01d2
01ee
020b
022a
024b
026e
0293
02ba
02e4
0310
033f
0370
03a4
03dc
0417
0455
0497
04dd
0527
0575
05c8
0620
067d
06e0
0749
07b8
082d
08a9
092d
09b9
0a4d
0aea
0b90
0c40
0cfa
0dc0
0e91
0f6f
105a
0000
0000
0000
0000
0000
0000
0000
0000
0000
0000
0000
0000
0000
0000
0000
0000
0000
0000
0000
